Endpoint is :https://reqres.in/api/users

Request Body is :{
    "name": "Abhishek",
    "job": "QAMgr"
}

Response Body is :{"name":"Abhishek","job":"QAMgr","id":"721","createdAt":"2023-12-12T13:43:47.557Z"}