Endpoint is :https://reqres.in/api/users

Request Body is :{
    "name": "Abhishek",
    "job": "QAMgr"
}

Response Body is :{"name":"Abhishek","job":"QAMgr","id":"432","createdAt":"2023-12-12T08:12:46.017Z"}